Customer Id : 4 Distance : 10.6143622779911
Customer Id : 5 Distance : 23.3918376381109
Customer Id : 6 Distance : 24.1934587138626
Customer Id : 8 Distance : 83.9074376497189
Customer Id : 11 Distance : 38.3087352027292
Customer Id : 12 Distance : 41.9561897824143
Customer Id : 13 Distance : 62.5110074418824
Customer Id : 15 Distance : 43.9187205164425
Customer Id : 17 Distance : 96.5098143464611
Customer Id : 23 Distance : 83.0660733017178
Customer Id : 24 Distance : 89.4306184057247
Customer Id : 26 Distance : 99.3183632406596
Customer Id : 29 Distance : 72.5258378992809
Customer Id : 30 Distance : 83.013763450962
Customer Id : 31 Distance : 44.489606184161
Customer Id : 39 Distance : 38.5301712770507
